{
    "PLAYERS_TURN": "Player %player%'s turn (%playerIcon%)",
    "START_ANOTHER_GAME": "Start another game using the 'Roll the dice!' button below",
    "CLICK_TO_START": "Click below to start the game!",
    "PLAYER_MOVED_WITH_OBSTACLE": "Player %player% (%playerIcon%) moved %moveCount% to %obstaclePosition% BUT an obstacle moved them to %currentPosition%",
    "PLAYER_MOVED": "Player %player% (%playerIcon%) moved %moveCount% to %currentPosition%",
    "PLAYER_WON": "Player %player% (%playerIcon%) has won!",
    "ROLLED_DOUBLE": "Player %player% (%playerIcon%) has rolled a double %diceOne%! Moving backwards %moveCount%!",
    "ROLLED_DOUBLE_OFF_BOARD": "Player %player% (%playerIcon%) has rolled a double, but since they're near the start they'll be moved to 0",
    "ROLLED": "Player %player% (%playerIcon%) has rolled a %diceOne% and a %diceTwo% for a total of %moveCount%!"
}